…
*Build dataframe and print particular elements:*

``` r
core_data <- prison_df %>% 
  group_by(state_aus) %>% 
  nest() %>% 
  mutate(models = map(data, lm_prison)) %>% 
  mutate(eval_metrics = map(models, broom::glance))

core_data %>% 
  pluck("data", 1)
```

    ## # A tibble: 48 x 3
    ##    date_mo    Remanded Sentenced
    ##    <date>        <dbl>     <dbl>
    ##  1 2005-03-01       67       111
    ##  2 2005-06-01       70       113
    ##  3 2005-09-01       64       123
    ##  4 2005-12-01       67       137
    ##  5 2006-03-01       64       126
    ##  6 2006-06-01       71       119
    ##  7 2006-09-01       61       104
    ##  8 2006-12-01       64       115
    ##  9 2007-03-01       63       109
    ## 10 2007-06-01       63        97
    ## # ... with 38 more rows
…
